…
78 Professional      High school           Managers, marketing, adverti… 0.0652 
79 Professional      High school           Registered nurses             0.0457 
80 Professional      High school           Accountants and auditors      0.0211 
81 Professional      Some college          Managers and administrators,… 0.345  
82 Professional      Some college          Registered nurses             0.184  
83 Professional      Some college          Sales workers, other commodi… 0.0875 
84 Professional      Some college          Managers, marketing, adverti… 0.0506 
85 Professional      Some college          Social workers                0.0443 
86 Professional      College               Managers and administrators,… 0.171  
87 Professional      College               Teachers, elementary school   0.119  
88 Professional      College               Teachers, secondary school    0.0850 
89 Professional      College               Registered nurses             0.0489 
90 Professional      College               Physicians                    0.0473 
[1] "Common occupations in population but which have with no college graduates"
# A tibble: 120 × 5
   parental_occ_title         parental_hwsei prop_college prop_noHS total_weight
   <fct>                               <dbl>        <dbl>     <dbl>        <dbl>
 1 Welders and cutters                    26            0     0.591        101. 
 2 Laborers, except construc…             22            0     0.625         79.6
 3 Janitors and cleaners                  20            0     0.588         45.1
 4 Telephone line installers…             42            0     0             45.0
 5 Textile sewing machine op…             10            0     0.556         41.1
 6 Bus drivers                            26            0     0.405         39.5
 7 Mining machine operators               30            0     0.5           37.3
 8 Stock and inventory clerks             27            0     0.4           36.1
 9 Operating engineers                    26            0     0.621         30.7
10 Tool and die makers                    37            0     0.273         29.1
# ℹ 110 more rows
[1] "Common occupations in population but which have with no less-than-high-school parents"
# A tibble: 65 × 5
   parental_occ_title         parental_hwsei prop_college prop_noHS total_weight
   <fct>                               <dbl>        <dbl>     <dbl>        <dbl>
 1 Accountants and auditors               54        0.577         0         61.2
 2 Physicians                             81        0.970         0         47.0
 3 Telephone line installers…             42        0             0         45.0
 4 Administrators, education…             54        0.963         0         33.8
 5 Electrical and electronic              67        0.808         0         33.3
 6 Civil                                  65        0.85          0         23.2
 7 Chemists, except biochemi…             62        0.778         0         23.0
 8 Industrial                             58        0.5           0         22.0
 9 Chemical                               70        0.929         0         18.9
10 Clergy                                 46        0.667         0         18.5
# ℹ 55 more rows
…
