…
[1] "Deductive causal visualization"
[1] "POPULATION AVERAGE EFFECT"
# A tibble: 8 × 7
  delta estimate      se  ci.min  ci.max outcome      ybar0
  <dbl>    <dbl>   <dbl>   <dbl>   <dbl> <chr>        <dbl>
1 10000  0.0167  0.00246 0.0119  0.0215  enrolled_any 0.557
2 25000  0.0381  0.00478 0.0288  0.0475  enrolled_any 0.557
3 10000  0.0111  0.00177 0.00761 0.0145  enrolled_4yr 0.358
4 25000  0.0250  0.00378 0.0176  0.0324  enrolled_4yr 0.358
5 10000  0.00668 0.00144 0.00387 0.00950 completed_25 0.223
6 25000  0.0153  0.00329 0.00889 0.0218  completed_25 0.223
7 10000  0.00820 0.00169 0.00488 0.0115  completed_30 0.288
8 25000  0.0186  0.00348 0.0118  0.0254  completed_30 0.288
[1] "WITHIN EDUCATION"
# A tibble: 24 × 8
   delta educJoint estimate      se    ci.min  ci.max outcome      ybar0
   <dbl>     <dbl>    <dbl>   <dbl>     <dbl>   <dbl> <chr>        <dbl>
 1 10000         2  0.00359 0.00229 -0.000893 0.00808 enrolled_any 0.557
 2 10000         1  0.00703 0.00234  0.00244  0.0116  enrolled_any 0.557
 3 10000         0  0.0206  0.00254  0.0156   0.0256  enrolled_any 0.557
 4 25000         2  0.00836 0.00461 -0.000672 0.0174  enrolled_any 0.557
 5 25000         1  0.0164  0.00469  0.00719  0.0256  enrolled_any 0.557
 6 25000         0  0.0470  0.00489  0.0374   0.0566  enrolled_any 0.557
 7 10000         2  0.00311 0.00174 -0.000306 0.00653 enrolled_4yr 0.358
 8 10000         1  0.00479 0.00177  0.00132  0.00825 enrolled_4yr 0.358
 9 10000         0  0.0136  0.00180  0.0100   0.0171  enrolled_4yr 0.358
10 25000         2  0.00727 0.00386 -0.000294 0.0148  enrolled_4yr 0.358
# ℹ 14 more rows
[1] "WITHIN INCOME TERCILE"
# A tibble: 24 × 8
   delta label_income estimate      se  ci.min  ci.max outcome      ybar0
   <dbl> <chr>           <dbl>   <dbl>   <dbl>   <dbl> <chr>        <dbl>
 1 10000 Low           0.0267  0.00281 0.0212  0.0322  enrolled_any 0.557
 2 10000 Mid           0.0154  0.00249 0.0105  0.0203  enrolled_any 0.557
 3 10000 High          0.00686 0.00220 0.00254 0.0112  enrolled_any 0.557
 4 25000 Low           0.0599  0.00526 0.0496  0.0702  enrolled_any 0.557
 5 25000 Mid           0.0358  0.00490 0.0262  0.0454  enrolled_any 0.557
 6 25000 High          0.0162  0.00445 0.00750 0.0249  enrolled_any 0.557
 7 10000 Low           0.0163  0.00195 0.0125  0.0201  enrolled_4yr 0.358
 8 10000 Mid           0.0104  0.00175 0.00698 0.0138  enrolled_4yr 0.358
 9 10000 High          0.00589 0.00173 0.00251 0.00927 enrolled_4yr 0.358
10 25000 Low           0.0352  0.00398 0.0274  0.0430  enrolled_4yr 0.358
# ℹ 14 more rows
[1] "WITHIN WEALTH TERCILE"
# A tibble: 24 × 8
   delta label_wealth estimate      se  ci.min ci.max outcome      ybar0
   <dbl> <chr>           <dbl>   <dbl>   <dbl>  <dbl> <chr>        <dbl>
 1 10000 Low           0.0227  0.00261 0.0176  0.0278 enrolled_any 0.557
 2 10000 Mid           0.0174  0.00260 0.0124  0.0225 enrolled_any 0.557
 3 10000 High          0.00963 0.00227 0.00519 0.0141 enrolled_any 0.557
 4 25000 Low           0.0513  0.00494 0.0416  0.0610 enrolled_any 0.557
 5 25000 Mid           0.0401  0.00506 0.0302  0.0500 enrolled_any 0.557
 6 25000 High          0.0222  0.00454 0.0133  0.0311 enrolled_any 0.557
 7 10000 Low           0.0120  0.00187 0.00834 0.0157 enrolled_4yr 0.358
 8 10000 Mid           0.0121  0.00181 0.00859 0.0157 enrolled_4yr 0.358
 9 10000 High          0.00897 0.00172 0.00559 0.0123 enrolled_4yr 0.358
10 25000 Low           0.0261  0.00388 0.0185  0.0337 enrolled_4yr 0.358
# ℹ 14 more rows
[1] "2023-10-17 16:55:40 EDT"
[1] "Causal estimates in interactive subgroups"
[1] "ENROLLED_ANY"
[1] "Subgroups that are never seen"
# A tibble: 3 × 5
  race               educJoint                   label_wealth label_income     n
  <fct>              <fct>                       <fct>        <fct>        <int>
1 Hispanic           "Two parents\nfinished col… "Middle\n$3… "Middle\n$5…    NA
2 Hispanic           "Two parents\nfinished col… "High\n$190… "Low\n< $55…    NA
3 Non-Hispanic Black "Two parents\nfinished col… "Low\n< $35… "Middle\n$5…    NA
[1] "Subgroups that are very sparse:"
# A tibble: 78 × 5
# Groups:   race, educJoint, label_wealth, label_income [78]
   race                   educJoint              label_wealth label_income     n
   <fct>                  <fct>                  <fct>        <fct>        <int>
 1 Hispanic               "Two parents\nfinishe… "Low\n< $35… "Low\n< $55…     1
 2 Hispanic               "Two parents\nfinishe… "Low\n< $35… "Middle\n$5…     1
 3 Hispanic               "Two parents\nfinishe… "Middle\n$3… "Low\n< $55…     1
 4 Non-Hispanic Black     "Two parents\nfinishe… "Low\n< $35… "Low\n< $55…     1
 5 Non-Hispanic Black     "Two parents\nfinishe… "High\n$190… "Low\n< $55…     1
 6 Non-Black Non-Hispanic "Two parents\nfinishe… "Middle\n$3… "Low\n< $55…     2
 7 Hispanic               "Two parents\nfinishe… "Low\n< $35… "High\n$104…     2
 8 Hispanic               "One parent\nfinished… "High\n$190… "Low\n< $55…     2
 9 Non-Hispanic Black     "Two parents\nfinishe… "Middle\n$3… "Low\n< $55…     2
10 Non-Hispanic Black     "Two parents\nfinishe… "High\n$190… "Middle\n$5…     2
# ℹ 68 more rows
…
# A tibble: 1 × 2
  prop_sample weighted
        <dbl>    <dbl>
1       0.799    0.803
[1] "ENROLLED_4YR"
[1] "Subgroups that are never seen"
# A tibble: 4 × 5
  race               educJoint                   label_wealth label_income     n
  <fct>              <fct>                       <fct>        <fct>        <int>
1 Hispanic           "Two parents\nfinished col… "Middle\n$3… "Low\n< $55…    NA
2 Hispanic           "Two parents\nfinished col… "Middle\n$3… "Middle\n$5…    NA
3 Hispanic           "Two parents\nfinished col… "High\n$190… "Low\n< $55…    NA
4 Non-Hispanic Black "Two parents\nfinished col… "Low\n< $35… "Middle\n$5…    NA
[1] "Subgroups that are very sparse:"
# A tibble: 77 × 5
# Groups:   race, educJoint, label_wealth, label_income [77]
   race               educJoint                  label_wealth label_income     n
   <fct>              <fct>                      <fct>        <fct>        <int>
 1 Non-Hispanic Black "Two parents\nfinished co… "Low\n< $35… "Low\n< $55…     1
 2 Non-Hispanic Black "Two parents\nfinished co… "High\n$190… "Low\n< $55…     1
 3 Non-Hispanic Black "One parent\nfinished col… "High\n$190… "Low\n< $55…     1
 4 Hispanic           "Two parents\nfinished co… "Low\n< $35… "Low\n< $55…     2
 5 Hispanic           "Two parents\nfinished co… "Low\n< $35… "Middle\n$5…     2
 6 Hispanic           "Two parents\nfinished co… "Low\n< $35… "High\n$104…     2
 7 Non-Hispanic Black "Two parents\nfinished co… "Low\n< $35… "High\n$104…     2
 8 Non-Hispanic Black "Two parents\nfinished co… "Middle\n$3… "Low\n< $55…     2
 9 Hispanic           "Two parents\nfinished co… "High\n$190… "Middle\n$5…     3
10 Hispanic           "One parent\nfinished col… "Low\n< $35… "High\n$104…     3
# ℹ 67 more rows
…
[1] "Prop of sample in those subgroups:"
# A tibble: 1 × 2
  prop_sample weighted
        <dbl>    <dbl>
1       0.797    0.799
[1] "COMPLETED_25"
[1] "Subgroups that are never seen"
# A tibble: 3 × 5
  race               educJoint                   label_wealth label_income     n
  <fct>              <fct>                       <fct>        <fct>        <int>
1 Hispanic           "Two parents\nfinished col… "High\n$190… "Low\n< $55…    NA
2 Non-Hispanic Black "Two parents\nfinished col… "Low\n< $35… "Middle\n$5…    NA
3 Non-Hispanic Black "One parent\nfinished coll… "High\n$190… "Low\n< $55…    NA
[1] "Subgroups that are very sparse:"
# A tibble: 78 × 5
# Groups:   race, educJoint, label_wealth, label_income [78]
   race                   educJoint              label_wealth label_income     n
   <fct>                  <fct>                  <fct>        <fct>        <int>
 1 Non-Black Non-Hispanic "Two parents\nfinishe… "Low\n< $35… "High\n$104…     1
 2 Hispanic               "Two parents\nfinishe… "Low\n< $35… "Low\n< $55…     1
 3 Hispanic               "Two parents\nfinishe… "Low\n< $35… "High\n$104…     1
 4 Hispanic               "Two parents\nfinishe… "Middle\n$3… "Low\n< $55…     1
 5 Hispanic               "Two parents\nfinishe… "Middle\n$3… "Middle\n$5…     1
 6 Non-Hispanic Black     "Two parents\nfinishe… "Low\n< $35… "Low\n< $55…     1
 7 Non-Hispanic Black     "Two parents\nfinishe… "High\n$190… "Low\n< $55…     1
 8 Non-Black Non-Hispanic "Two parents\nfinishe… "Middle\n$3… "Low\n< $55…     2
 9 Hispanic               "Two parents\nfinishe… "Low\n< $35… "Middle\n$5…     2
10 Hispanic               "Two parents\nfinishe… "High\n$190… "Middle\n$5…     2
# ℹ 68 more rows
…
[1] "Prop of sample in those subgroups:"
# A tibble: 1 × 2
  prop_sample weighted
        <dbl>    <dbl>
1       0.805    0.808
[1] "COMPLETED_30"
[1] "Subgroups that are never seen"
# A tibble: 3 × 5
  race               educJoint                   label_wealth label_income     n
  <fct>              <fct>                       <fct>        <fct>        <int>
1 Hispanic           "Two parents\nfinished col… "Middle\n$3… "Middle\n$5…    NA
2 Hispanic           "Two parents\nfinished col… "High\n$190… "Low\n< $55…    NA
3 Non-Hispanic Black "Two parents\nfinished col… "Low\n< $35… "Middle\n$5…    NA
[1] "Subgroups that are very sparse:"
# A tibble: 78 × 5
# Groups:   race, educJoint, label_wealth, label_income [78]
   race               educJoint                  label_wealth label_income     n
   <fct>              <fct>                      <fct>        <fct>        <int>
 1 Hispanic           "Two parents\nfinished co… "Low\n< $35… "Low\n< $55…     1
 2 Hispanic           "Two parents\nfinished co… "Low\n< $35… "Middle\n$5…     1
 3 Hispanic           "Two parents\nfinished co… "Middle\n$3… "Low\n< $55…     1
 4 Non-Hispanic Black "Two parents\nfinished co… "Low\n< $35… "Low\n< $55…     1
 5 Non-Hispanic Black "Two parents\nfinished co… "High\n$190… "Low\n< $55…     1
 6 Hispanic           "Two parents\nfinished co… "Low\n< $35… "High\n$104…     2
 7 Non-Hispanic Black "Two parents\nfinished co… "Low\n< $35… "High\n$104…     2
 8 Non-Hispanic Black "Two parents\nfinished co… "Middle\n$3… "Low\n< $55…     2
 9 Non-Hispanic Black "One parent\nfinished col… "Low\n< $35… "High\n$104…     2
10 Non-Hispanic Black "One parent\nfinished col… "High\n$190… "Low\n< $55…     2
# ℹ 68 more rows
…
